…
How many aisles are there, and which aisles are the most items ordered
from? Make a plot that shows the number of items ordered in each aisle,
limiting this to aisles with more than 10000 items ordered. Arrange
aisles sensibly, and organize your plot so others can read it. Make a
table showing the three most popular items in each of the aisles “baking
ingredients”, “dog food care”, and “packaged vegetables fruits”. Include
the number of times each item is ordered in your table.

``` r
instacart %>% 
  group_by(aisle) %>%
  summarise(n_obs = n()) 
```

    ## # A tibble: 134 x 2
    ##    aisle                  n_obs
    ##    <chr>                  <int>
    ##  1 air fresheners candles  1067
    ##  2 asian foods             7007
    ##  3 baby accessories         306
    ##  4 baby bath body care      328
    ##  5 baby food formula      13198
    ##  6 bakery desserts         1501
    ##  7 baking ingredients     13088
    ##  8 baking supplies decor   1094
    ##  9 beauty                   287
    ## 10 beers coolers           1839
    ## # … with 124 more rows
…
